scorer • fvbb.scorer
…
cols_to_gather <- names(table_scorers)[!names(table_scorers) %in% c("scorer", "scorer_goal", "scorer_assistant")]

table_scorer_long <- tidyr::pivot_longer(table_scorers, 
                                         names_to = "score_type", 
                                         values_to = "scorer_name", 
                                         cols = c( "scorer_goal", "scorer_assistant"))

table_scorer_long_tidy <- table_scorer_long %>%  
  dplyr::mutate(score_type = stringr::str_remove_all(score_type, pattern = "scorer_")) %>% 
  dplyr::filter(!is.na(scorer_name)) 

table_scorer_long_tidy %>% 
  dplyr::count(scorer_name) %>%  
  dplyr::arrange(dplyr::desc(n)) 
#> # A tibble: 26 x 2
#>    scorer_name            n
#>    <chr>              <int>
#>  1 Dominik Czichkochi    18
#>  2 Oskar Dietz           10
#>  3 Kennett Kraft          8
#>  4 Mika Rymarzewicz       7
#>  5 Milan  Brunk           7
#>  6 Linus Rabe             6
#>  7 Jonathan Sitali        5
#>  8 Finn Viehoff           4
#>  9 Romy Gottschalkson     4
#> 10 Anton Bandrock         3
#> # … with 16 more rows
…
